<?xml version='1.0' encoding='UTF-8'?>
<dunes-script-module name="getLogLevel" result-type="string" api-version="6.0.0" id="b92391c1-a510-48a4-ae89-0b8632726bae" version="0.1.0" allowed-operations="evf" category-name="com.vmware.pso.helpers.log">
  <description><![CDATA[Return "info" if fails]]></description>
  <script encoded="false"><![CDATA[var confpath = "SG/Global";
var confname = "Logging";
var defaultlevel = "info";

var configElmtCat = Server.getConfigurationElementCategoryWithPath(confpath);
if(configElmtCat == null)
	return defaultlevel;
	//throw "Configuration Element Category for path '" + confpath + "' not found";
	
var configElmts = configElmtCat.configurationElements
if(configElmts == null || configElmts.length <= 0)
	return defaultlevel;
	//throw "No configuration Element found in category '" + configElmtCat.name + "'";

var configElmt = null;
for each(var c in configElmts)
{
	if(c.name == confname)
	{
		configElmt = c;
		break;
	}
}

if(configElmt == null)
	return defaultlevel;
	//throw "No configuration Element with name '" + confname + "' found in category '" + configElmtCat.name + "'";

//Get Global configuration (error | warn | info | debug)
var configlevel = null;
try {
configlevel = System.getModule("com.vmware.library.configurations").getObjectFromConfigurationElementWithKey("level", configElmt);
} catch(error){ return defaultlevel; }

if(configlevel == null || configlevel == "")
	configlevel = defaultlevel;

return configlevel;]]></script>
</dunes-script-module>