<?xml version='1.0' encoding='UTF-8'?>
<dunes-script-module name="globalLog" result-type="void" api-version="6.0.0" id="bbd1cb9b-c63f-47a4-a593-81d943347c58" version="0.1.0" allowed-operations="evf" category-name="com.vmware.pso.helpers.log">
  <param n="obj" t="Any"/>
  <param n="type" t="string"/>
  <param n="message" t="string"/>
  <script encoded="false"><![CDATA[if(obj == null)
	obj = "Unknown";

if(type == null || type == "")
	type = "No Type";

if(message == null || message == "")
	message = "Empty message";
	
//Construct message
var logmessage = "[" + type.toUpperCase() + "]";
try {
	if(System.getObjectType(obj) == "Module")
		logmessage += "[" + System.getObjectClassName(obj) + "]";
	else if(obj["workflow"] != null)
		logmessage += "[" + obj["workflow"].currentWorkflow.name + "]";
	else
		logmessage += "[" + obj + "]";
} 
catch(err) {
	logmessage += "[" + obj + "]";
}
logmessage += ":" + message;
//Get Global configuration (error | warn | info | debug)
var configlevel = System.getModule("com.vmware.pso.helpers.log").getLogLevel();

//Default is info
var configlevelid = 3;

if(configlevel == "error")
	configlevelid = 1;
if(configlevel == "warn")
	configlevelid = 2;
if(configlevel == "info")
	configlevelid = 3;
if(configlevel == "debug")
	configlevelid = 4;

//Write log
switch(type)
{
	case "error":
		if(configlevelid >= 1) System.log(logmessage);
	break;
	
	case "warn":
		if(configlevelid >= 2) System.log(logmessage);
	break;
	
	case "info":
		if(configlevelid >= 3) System.log(logmessage);
	break;
	
	case "debug":
		if(configlevelid >= 4) System.log(logmessage);
	break;
	
	default:
	break;
}
]]></script>
</dunes-script-module>